{
  ".coveragerc": {
    "coverage": "nRs1aY3kZb5GcQom7YHTuAAq88v9Bu3LLH90E1fJhw4cYrnZ5HEURbIr+PrBDdJ9Xwvu9NEYEkE8cA2E8G6vog=="
  },
  ".gitattributes": {},
  ".gitignore": {
    "git": "YdtuBgiebZYkx7gPnUrg80WPRfLMS9mGty7W3hFEzLlp+PDuNfiaAEbuqAAU7a1tCXWXxjBmPKuGcDeOQfrhYg==",
    "glabbase": "05dL5MMraIwcncxWu65atnC8QoWDIoeZwPGFe4NGugNU6lGfF5HKZ1+wtGuKVFgQARbc4/Uv4UTYyWFEtmBe3A=="
  },
  ".gitlab-ci.yml": {
    "glabbase.before": "71eK3GiwIpELtMkDyYpJSekqXNUXjwt0j+qWo9fh15j2fz2qtd8vuJj5tj/r3v4p2t09Et0ApU31D63FCgVtMQ==",
    "glabbase.image": "W6vyLsVpEFtBr33486EZJg/b3PlUbxuG3zwUdj8zlD9UUSMcuyKH2hltl82pXSf4Mi7tb5wulVxPOE1nk9E2TA==",
    "glabbase.stages": "b+jsaYyljn9N2c6bQ4tzUE0RvGXL3iTDDdguQH6728SPFkg0nwHuEX39ActAJoCub/LOgCcERW8UWKwQG073Aw==",
    "glabpkg_dev.before": "FJAgwb7nx77D/cSPaa448FgjX4aTt//XmMpXLC1nA21EM5wMZLpXrRezUGXbJcyH26mWk91XJD7KLrMOpbM3kw==",
    "glabpkg_dev.pages": "pQ86Vq5noqng8uKuydidg7jj/oV0ouqdxdyJoh4NDu4QpmG0lT/q4xa9cxn/31vbj5VOMVg3c6eEDVpNscrEZg==",
    "glabpkg_dev.stages": "ud0vGyEwLf57CU298RUcNP/gPK4W+M0luf63b9YhjYNRst/BV6toz2hrjQpl7mF/bqF27krAE5WlNNMDqSSEfw==",
    "glabpkg_dev.test": "9ZYwqi4Q9FNdDgf5ikoQHefNsRcXu7laui/Go4yAS+kv2JNB4ojKZJoFt2EJoGFxQNBTYpbHEChs7ZM/+XbCdw==",
    "glabpkg_dev.test_all": "D+MdxWjmMNGB1/o47BFpzoi87vwcUOEJ+Wn4WPEm39V4SrC1tClsibYCI/xkoW6ntsxwP7xOXrhWIrTi8WB7hw=="
  },
  ".gitlab/issue_templates/bug.md": {},
  ".gitlab/issue_templates/feature.md": {},
  ".gitlab/issue_templates/technical_task.md": {},
  ".pypirc": {
    "pypi.serverdescr": "d6B+Qvp4m8jn/exks3Rn+36F5CYJtuu7hnbIDZauGJVydBD8d2afBO1Pq0KNvhuDgx5x4tslaFISorNRxUqAXA==",
    "pypi.serverlist": "PC9SiM3/1x2vn66stkaGs8IZmA3C9zq9z6sBMLr74e3tdF5l0eBAZsagfMbQjPF+AW6evtXBtpEDMsF3dkjVHQ=="
  },
  "AUTHORS.rst": {
    "doc.authors": "/4DdVJ8b3rG94lfO9Lc7StWASvDQpuf73AL4vpQmxvi4N9ShPsMeP3Shwf6i2d3e4dvIUgDW1Mc0vUxg5LkbUw==",
    "doc.contributors": "J3DSW7KTgdo8oapZqBtZND/7nxY3IXay+rBR7ozFhOJKM047KgTFZPT/yFPdXFDnkAOisXboGHN5A1jNnTs++g=="
  },
  "CONTRIBUTING.rst": {},
  "HISTORY.rst": {},
  "LICENSE": {
    "license": "8T8OUqjlQha1L2WVIjMnlAuMC7QSOZ/Cft/ojnd+BkyKsbdSw6DAbXk1TlI6UvA8A23PQAb98UcVdMqO+ENkiw=="
  },
  "README.rst": {
    "doc": "fi8OF6wAR/20NatP5fU258gRWl49m0eCDpA+DicuPR4VFQvftuVJzcnUcbYGg3uNyLOZ9t1Rs169Vle4HcAuaA==",
    "glabpkg_dev": "nmyf48wyE8quH8rbkJ00Fwb/ff0kR9NEzG+zUFc/k9duGIEf4+hTEdLVOFPHNDDbVWw0qE25qrDuACjJeftcxA=="
  },
  "conda/meta.yaml": {
    "conda.about": "oT1CnZnQNlParxW+rQiknBgEW9ZCMpgBfJqo+cmbWjeqCk0jgjZprLkDwfIBpkmFQu+w75Hr09cMJVZNx89PLA==",
    "conda.package": "jL4d6i6ipX4CqvU6dBcKFcJkoOzbizaGpae7gVHxXbcJsqIhrUefkLeuihyDsFsEKbKurkizKaWyx3+3b1i5bQ==",
    "conda.req_build": "21mJUBrupQkwWVvht9oeAcxPY/9UxphvIYC16gdN1wbXVfmH/FkzYMmkQvY02Ev7g3+yqUG9HYPar36xoSLdjQ==",
    "conda.req_run": "5M4ogCVe4S5aINSsp+zjGOTv4IiJgSd7y8Z0jYwi4nIlsTW1aBe4KLJgWZAXxHa7ly+lLwDajok8g5E1CDhZGA==",
    "conda.src": "Lzbp176AVU0YantZQxB4LsR2jbxpZ/OlkvY2V4aWAEuzKEarh872uc1eRvsIYf/FsbxvcmUI84AezWlA72nI6A=="
  },
  "conda/requirements.yml": {
    "conda": "42bG3GIzitRPYNsZKZ/7NMzGS4/zxh1vpc2NiQziNiL+9/PdSbDHhK87E2dIv74VM0E5dTKEewmFUPQGQUYgaw=="
  },
  "conda/requirements_minimal.yml": {
    "conda": "zOBlP9f2tc2b0AFD2dxmzXW2WjbZv1EbjA+Mcx1X7S29SSq+rbdMb0BKgluL16ZaD89Q6bxZt0ChQX1Ye5pKMQ=="
  },
  "doc/Makefile": {
    "sphinx": "EsaaEppe6Kw79WHpUyBigedrIraP6YlQDBg9Fu6jue32Rt6mCQkk2zH7gfOVqjT5bNpnXN90UfLkrzHVJCo6UQ=="
  },
  "doc/_static/nonempty.txt": {},
  "doc/authors.rst": {},
  "doc/badges/badge_doc.svg": {
    "glabpkg_dev": "KrAOCc4AelFFvqiGTii3mLryPRlBDXBQe55dDNjrw5SWa/r0cbrR+T9bkBwIY3OlYrI5xOtNf1U0qSymumGyHQ=="
  },
  "doc/badges/badge_pkging_conda.svg": {
    "glabpkg": "elEB5opopbYDk2kks0pckVl+FWV1N6Ddh1fpqxmJ3agmbKhJaNtArksgMMrA6xVpi25Afe1uqkj7EW9cMVskgA=="
  },
  "doc/badges/badge_pkging_pip.svg": {
    "glabpkg": "vJZsVULsaqbmXETPzrjX6TfaBxU1mZc5HCU4NzvTSbCnxW+SVoNBbkXj5MSmzOADJrxn+JvhdqXLi43ryv6iNA=="
  },
  "doc/badges/listing.rst": {
    "glabpkg": "rs4yROU5DdwnWeQyVLKpqta2/+p1We1P8r4RWx7R9DXwRf1ltUlXCnUZxlAjk8gchIfd+UpVNIfNaSKZkJp7Wg==",
    "glabpkg_dev": "w/qrxnIKJZGf1KrMHOj5M22uOD5GiS3a+LgxBtKm9PJa7IPl5nLlTBWqUq2Ywnsk76w+8OCCd4kgwQSCZtEroQ=="
  },
  "doc/biblio/biblio.rst": {},
  "doc/conf.py": {
    "sphinx": "xroxhG9GnbEbGrsubTo72d9OORownFD51olH6guH20ihR2+eCoI1qyUodFi9GtC9jb+j2EHc/aNrJDJWeTuq0Q=="
  },
  "doc/contributing.rst": {},
  "doc/history.rst": {},
  "doc/index.rst": {},
  "doc/installation.rst": {
    "glabpkg": "utKIFkQyigNtCVbDlpubb6bYgWolaFKo5kkZNA606mQflOgbJL2EMSjUiZgNaFBbR3QZcOaz0Vv19Xu7gDDw9w=="
  },
  "doc/make.bat": {
    "sphinx": "E9sFsnXAm9uPYBn7f0Qb6edct0UKizsXRIJyjZISRCjHbT2HldXK4GIj1yO69R/OVSfnmdAX5lzXQ4wONQNFgA=="
  },
  "doc/management.rst": {},
  "doc/readme.rst": {
    "glabpkg_dev": "McXV4vuKv6Q8dtwgHRzv6kocBPKoTpf1JgfDTbX8pRAunbH/ebZaeuT4ac2vZnshIfcwzuG/vl8uWQ1kcOp/eA=="
  },
  "doc/usage.rst": {},
  "doc/user/index.rst": {},
  "doc/user/overview.rst": {},
  "example/readme.rst": {},
  "pyproject.toml": {
    "pyproject.build": "I2LGHHOpCXWlR8y2Sb2cY5UG39iTOOrVRVdA911ZyiSQt5YGkno3LbeRNL4DxPeE9zgYef1R8FDKDPB3U6f79g==",
    "pyproject.gui_scripts": "VNRlO4ElRuynet0DT31hGYve1t2FV1CooE7f9Bi+PIRMF5YmdymGAS4Q6k4woJdDJ3JILO7ozz/yv4RpujFdQQ==",
    "pyproject.project": "8JLBgdgsoMjP+1pZNeffbTziTo1ShHcIMD4vCJaaFRCcqv8eauCZiVXe+dzbk6AsHWRg2cK3xpFEnxB4vSv6uA==",
    "pyproject.scripts": "nxzQt1CUNkpQiiU7Ajxf8abPXHZurGnQFv5j+v5nxAM9VwHmddCFUclVMs+nAk+DSBoFCOFU4k2hboyksj2e3Q==",
    "test": "e45jv1byJ1NafTxWyYRRei3xyNyxBYkuJ0FbxE8IO2FXChQlQtVR0aj2AdcVLE/ug9ULdPIKWn9qj2akd30VAg=="
  },
  "raw/readme.rst": {},
  "requirements.txt": {
    "reqs": "KEMsuEynrlbS9MCmDcBwuH4TIoDYnt0rufLz4lIITGGrrjVqV0L4q1T0WJf4oGIfgfIn2pUs3myZx7xJ/bAcsA=="
  },
  "requirements_minimal.txt": {
    "reqs": "mPr+BStITi1+6Qd682OE+9jCZSX+0jwKvJXsV1+zOo5aoNAUVUtivJWGtjalg5vgZLyLzuxWiblymA+xCtbd4w=="
  },
  "script/readme.rst": {},
  "src/yin2009/__init__.py": {
    "glabdata": "NcZRz+yBeeoU3y12dw+wm0e8ukqIl0AfwFA5aEzPj+VPfUclV0E1UEO6Aj7cERLoRgsE6GwQjzVth7xgyRN6Ww==",
    "src": "L2dZgUBRC5qv3o09+1CbMcgYfQtR1ZNSvP8KlP8REQazZiAQAktALjpCC2ijdxvKPv/tN9KsZrzNW+lZMszSfg==",
    "version": "skSCnavrYKIlfN9Mpi+cANbU8gXulaKdlHryvkjkoSSpsag1I66dM+6JHm1aOdmKYU0rZNNgcIamCMbIL7IeMg=="
  },
  "src/yin2009/clean/readme.rst": {},
  "src/yin2009/info.py": {},
  "src/yin2009/version.py": {
    "version": "6UAu0drIqc4907+8TdeYsWqpR84hHufuDWpESPksYnqa/Xv5RQa5aA2yUeIsQKzHUni2aow6Si7FQl5qt2qpHw=="
  },
  "test/conftest.py": {
    "test.pytest_addoption": "I/hswVryIEYvZRBcFqkfRBxLP6eZCwZSbQuPclkOkjHw4MApBst5h7H0ejnMMe4bmwHXMXR5DCSxOMj/FcCnjQ==",
    "test.pytest_cmdline_preparse": "CTWmHB5nSHyLzNlXztqKq0EPrEcqhe5t2ru3XA98jZjbPE7lW5vy/jdaL08yzFsTyO2tz24zElVL6pZzeFfTow==",
    "test.pytest_collection": "a/3h30sLUHJ7xWsOrmfCInOOVXvm660dS+RxHwcDUcae2jHqDLRGhq/v8zgC+FSzN3pXaEaJ1QBJ9MNLOUBuCA==",
    "test.pytest_configure": "SjyTXdrRadJNWhVFYkAvXekjOqNtovwqKNizWD35oZ9XVmsdB/B+lQDzXNPZQ0D5flFpSEURUiGqIvifgEKZ9Q==",
    "test.pytest_import": "2ox6A0szNpUYZR5cJJRSW3OwEWR558BOiUMjC/OVkTPT++CF/OCgGSELCPL+7YHWaJGQKMw2rtCXmOMeSK5ZJA=="
  },
  "test/test_packaging.py": {
    "glabdata": "GbARD5kqJfKK+mSXDOCh7c9qzyDj/5lrDox4SEf0anRahx7dYL+rtc1cDZFDGCAKgvLrBrz5jyj6V7z938ppQw==",
    "glabpkg_dev": "tt7GM9XttxoNaN0n3OwJjiuHwJBPJTCvm1YVElHYSXb8hd94Bp6yUjG107tTUiEoaPtu/aSBWtFc9j/kLg6TNQ=="
  }
}